@startuml

title __CUSTOMEREXCEPTIONS's Class Diagram__\n

  package  {
    package com.accenturetraining.team1.acmedvdwebapp {
      package com.accenturetraining.team1.acmedvdwebapp.util.customerExceptions {
        class CustomerAccountIsInactive {
            + CustomerAccountIsInactive()
        }
      }
    }
  }
  

  package  {
    package com.accenturetraining.team1.acmedvdwebapp {
      package com.accenturetraining.team1.acmedvdwebapp.util.customerExceptions {
        class CustomerDuplicateException {
            + CustomerDuplicateException()
        }
      }
    }
  }
  

  package  {
    package com.accenturetraining.team1.acmedvdwebapp {
      package com.accenturetraining.team1.acmedvdwebapp.util.customerExceptions {
        class CustomerInDebtException {
            + CustomerInDebtException()
        }
      }
    }
  }
  

  package  {
    package com.accenturetraining.team1.acmedvdwebapp {
      package com.accenturetraining.team1.acmedvdwebapp.util.customerExceptions {
        class CustomerNotFoundException {
            + CustomerNotFoundException()
        }
      }
    }
  }
  

  package  {
    package com.accenturetraining.team1.acmedvdwebapp {
      package com.accenturetraining.team1.acmedvdwebapp.util.customerExceptions {
        class RentalsByCustomerNotFound {
            + RentalsByCustomerNotFound()
        }
      }
    }
  }
  

  CustomerDuplicateException -up-|> IOException


right footer


PlantUML diagram generated by SketchIt! (https://bitbucket.org/pmesmeur/sketch.it)
For more information about this tool, please contact philippe.mesmeur@gmail.com
endfooter

@enduml
